{
    "uchars": [
        "numberOfPixelHits",
        "numberOfPixelHoles",
        "numberOfSCTHits",
        "numberOfSCTHoles"
    ],
    "customs": [
        "d0",
        "d0Uncertainty",
        "z0SinTheta",
        "z0SinThetaUncertainty",
        "pt",
        "eta"
    ]
}
