{
    "uchars": [
        "numberOfInnermostPixelLayerHits",
        "numberOfNextToInnermostPixelLayerHits",
        "numberOfInnermostPixelLayerSharedHits",
        "numberOfInnermostPixelLayerSplitHits",
        "numberOfPixelHits",
        "numberOfPixelHoles",
        "numberOfPixelSharedHits",
        "numberOfPixelSplitHits",
        "numberOfSCTHits",
        "numberOfSCTHoles",
        "numberOfSCTSharedHits"
    ],
    "ints": [
        "truthOriginLabel",
        "truthVertexIndex",
        "SV1VertexIndex",
        "JFVertexIndex"
    ],
    "floats": [
        "chiSquared",
        "numberDoF",
        "btagIp_d0",
        "btagIp_z0SinTheta",
        "theta",
        "qOverP",
        "AMVFWeightPV",
        "ambiRank"
    ],
    "customs": [
        "IP3D_signed_d0_significance",
        "IP3D_signed_z0_significance",
        "pt",
        "eta",
        "phiUncertainty",
        "thetaUncertainty",
        "qOverPUncertainty",
        "deta",
        "dphi",
        "dr",
        "ptfrac"
    ]
}
