{
    "chars": [
        "IP2D_isDefaults",
        "IP3D_isDefaults",
        "JetFitter_isDefaults",
        "SV1_isDefaults",
        "JetFitterSecondaryVertex_isDefaults",
        "rnnip_isDefaults"
    ],
    "jet_int_variables": [
        "GhostBHadronsFinalCount",
        "GhostCHadronsFinalCount",
        "HadronConeExclTruthLabelID",
        "HadronConeExclExtendedTruthLabelID",
        "PartonTruthLabelID",
        "jetPtRank"
    ],
    "floats": [
        "pt_btagJes",
        "eta_btagJes",
        "absEta_btagJes",
        "DL1_pu",
        "DL1_pc",
        "DL1_pb",
        "DL1r_pu",
        "DL1r_pc",
        "DL1r_pb"
    ],
    "doubles": [],
    "jet_floats": [
        "GhostBHadronsFinalPt",
        "bTagJVT",
        "pt",
        "eta",
        "mass",
        "energy"
    ],
    "ints_as_float": [
    ],
    "event": [
        "mcEventWeight",
        "eventNumber",
        "averageInteractionsPerCrossing",
        "actualInteractionsPerCrossing",
        "nPrimaryVertices"
    ]
}
