{
    "jet_collection": "tempJets",
    "jet_calibration_collection": "AntiKt4EMPFlow",
    "jet_calib_file": "JES_MC16Recommendation_Consolidated_PFlow_Apr2019_Rel21.config",
    "cal_seq": "JetArea_Residual_EtaJES_GSC_Smear",
    "cal_area": "00-04-82",
    "do_calibration": "false",
    "do_heavyions": "false",
    "jetclean_option": "none",
    "vr_cuts": "false",
    "jvt_cut": 0.5,
    "pt_cut": 20000,
    "vertex_collection": "HLT_IDVertex_FS",
    "n_jets_per_event": 0,
    "dl2_configs": [],
    "variables": {
        "btag": {
            "file": "fragments/trigger-variables.json"
        },
        "default_mapping": {
            "file": "fragments/default-mapping.json"
        }
    },
    "tracks": [
        {
            "n_to_save": 40,
            "selection": {
                "file": "fragments/ip3d-loose-track-cuts.json"
            },
            "sort_order": "d0_significance",
            "btagging_link": "btaggingLink",
            "input_name": "BTagTrackToJetAssociator",
            "output_name": "tracks",
            "variables": {
                "file": "fragments/single-btag-track-variables.json"
            },
            "ip_prefix": "btagIp_"
        }
    ],
    "truths": [],
    "decorate": {
        "jet_aug": "false",
        "btag_jes": "true",
        "soft_muon": "false",
        "track_truth_info": "false",
        "track_sv_info": "false",
        "track_ambiguity_solver_ranking": "false",
        "hits": "false"
    },
    "btagging_link": "btaggingLink"
}
